…
# Check for missing months and remove any remaining NAs
df_ts <- df_ts %>%
  fill_gaps() %>%
  filter(!is.na(Pasta))

# Verify the tsibble structure and content
print(df_ts)
```

    ## # A tsibble: 246 x 2 [1M]
    ##       Month Pasta
    ##       <mth> <int>
    ##  1 2004 Jan    10
    ##  2 2004 Feb     9
    ##  3 2004 Mar     9
    ##  4 2004 Apr     9
    ##  5 2004 May     9
    ##  6 2004 Jun     9
    ##  7 2004 Jul    10
    ##  8 2004 Aug    10
    ##  9 2004 Sep     9
    ## 10 2004 Oct    10
    ## # ℹ 236 more rows
…
